Egemen Atam Progress Journal - 3 deneme
…
sd21$`Stake (%)`<- str_remove(sd21$`Stake (%)`, pattern = "%")
sd21 <- sd21 %>% mutate(`Stake (%)` = as.numeric(`Stake (%)`))

Warning in mask$eval_all_mutate(quo): NAs introduced by coercion

"Kim kaç defa yatırım yapmış"

[1] "Kim kaç defa yatırım yapmış"

sd21 %>%group_by(Investor)%>%
  summarize(count=n()) %>%
  arrange(desc(count))

# A tibble: 221 × 2
   Investor                                         count
   <chr>                                            <int>
 1 fonbulucu.com                                       19
 2 Games United                                         8
 3 WePlay Ventures                                      7
 4 Alesta Yatırım                                       6
 5 Keiretsu Forum                                       5
 6 Undisclosed Investor                                 5
 7 212 (Fund II)                                        4
 8 Boğaziçi Ventures (BV Growth)                        4
 9 Vestel Ventures                                      4
10 Alesta Yatırım, Sertaç Özinal (Private Investor)     3
# … with 211 more rows

sd21 %>% group_by(Investor)%>%
  summarize(sum =sum(`Deal Value (USD)`)) %>%
  arrange(desc(sum))

# A tibble: 221 × 2
   Investor                                                                  sum
   <chr>                                                                   <dbl>
 1 Softbank, General Atlantic, Princeville Capital, ADO, Qatar Investmen… 1.44e9
 2 IPO Investors                                                          7.61e8
 3 Silver Lake Partners, Sequoia Capital, Tiger Global Management, Goodw… 5.55e8
 4 Sequoia Capital, Tiger Global Management, Base Capital Partners, Cran… 3   e8
 5 Kora, Institutional Venture Partners, Makers Fund, Balderton Capital,… 1.55e8
 6 Base Partners, Crankstart Foundation, Goodwater Capital, Tiger Global… 1.28e8
 7 Undisclosed Existing Investors                                         3.5 e7
 8 Actera Group, Esas Holding                                             3   e7
 9 Arkance SAS                                                            3   e7
10 Brisa                                                                  2.06e7
# … with 211 more rows

"investor yapanlar nereli"

[1] "investor yapanlar nereli"

sd21 %>%group_by(`Investor's Origin`)%>%
  summarize(count=n()) %>%
  arrange(desc(count))

# A tibble: 38 × 2
   `Investor's Origin` count
   <chr>               <int>
 1 Turkey                235
 2 USA                    11
 3 UK                      6
 4 France                  2
 5 Germany                 2
 6 India                   2
 7 Netherlands             2
 8 Qatar, Turkey           2
 9 Turkey, Estonia         2
10 Turkey, USA             2
# … with 28 more rows

"investor yapanlar ne kadar ve nereli"

[1] "investor yapanlar ne kadar ve nereli"

sd21 %>%group_by(`Investor's Origin`)%>%
  summarize(sum =sum(`Deal Value (USD)`),count=n()) %>%
  arrange(desc(sum))

# A tibble: 38 × 3
   `Investor's Origin`                 sum count
   <chr>                             <dbl> <int>
 1 "USA, Qatar, UAE, \r\nJapan" 1435000000     1
 2 "USA"                        1076423346    11
 3 "USA, UAE"                    555000000     1
 4 "USA, UK"                     167000000     2
 5 "USA, Brazil, Turkey"         128000000     1
 6 "UK"                           52307000     6
 7 "NA"                           35000000     1
 8 "France"                       32000000     2
 9 "Turkey, Belgium, USA"         20000000     1
10 "Finland"                      10000000     1
# … with 28 more rows

sd21 %>%group_by(`Investor's Origin`)%>%
  summarize(sum =sum(`Deal Value (USD)`,na.rm = TRUE),count=n()) %>%
  arrange(desc(count))

# A tibble: 38 × 3
   `Investor's Origin`         sum count
   <chr>                     <dbl> <int>
 1 Turkey               210986754.   235
 2 USA                 1076423346     11
 3 UK                    52307000      6
 4 France                32000000      2
 5 Germany                5100000      2
 6 India                  3050000      2
 7 Netherlands            5800000      2
 8 Qatar, Turkey          1140000      2
 9 Turkey, Estonia         830000      2
10 Turkey, USA             725000      2
# … with 28 more rows

"investmentların sektörlere göre dağılımı"

[1] "investmentların sektörlere göre dağılımı"

sd21 %>%group_by(`Sector`)%>%
  summarize(sum =sum(`Deal Value (USD)`)) %>%
  arrange(desc(sum))

# A tibble: 45 × 2
   Sector                         sum
   <chr>                        <dbl>
 1 Ecommerce enabler       2218940063
 2 Delivery & Logistics    1027811561
 3 Media                     21759000
 4 Energy                    21608314
 5 Deeptech                  16457491
 6 Telecom                   12250000
 7 Agritech                  11618700
 8 Education                 10933845
 9 Artificial intelligence    6477366
10 Marketingtech              5090000
# … with 35 more rows

sd21 %>%group_by(`Sector`)%>%
  summarize(count=n()) %>%
  arrange(desc(count))

# A tibble: 45 × 2
   Sector                  count
   <chr>                   <int>
 1 Gaming                     51
 2 SaaS                       28
 3 Fintech                    23
 4 Marketplace                17
 5 Healthtech                 14
 6 Delivery & Logistics       13
 7 Media                      12
 8 Artificial intelligence    11
 9 Deeptech                   11
10 Foodtech                    9
# … with 35 more rows
…
